<?xml version="1.0" encoding="UTF-8" standalone="no"?>
<!-- Created with Inkscape (http://www.inkscape.org/) -->

<svg
   xmlns:dc="http://purl.org/dc/elements/1.1/"
   xmlns:cc="http://creativecommons.org/ns#"
   xmlns:rdf="http://www.w3.org/1999/02/22-rdf-syntax-ns#"
   xmlns:svg="http://www.w3.org/2000/svg"
   xmlns="http://www.w3.org/2000/svg"
   xmlns:sodipodi="http://sodipodi.sourceforge.net/DTD/sodipodi-0.dtd"
   xmlns:inkscape="http://www.inkscape.org/namespaces/inkscape"
   width="104.56725mm"
   height="10.47998mm"
   viewBox="0 0 104.56725 10.47998"
   version="1.1"
   id="svg8"
   inkscape:version="0.92.3 (2405546, 2018-03-11)"
   sodipodi:docname="flip.svg">
  <defs
     id="defs2" />
  <sodipodi:namedview
     id="base"
     pagecolor="#ffffff"
     bordercolor="#666666"
     borderopacity="1.0"
     inkscape:pageopacity="0.0"
     inkscape:pageshadow="2"
     inkscape:zoom="1.979899"
     inkscape:cx="232.40823"
     inkscape:cy="23.577969"
     inkscape:document-units="mm"
     inkscape:current-layer="layer1"
     showgrid="false"
     inkscape:window-width="1920"
     inkscape:window-height="996"
     inkscape:window-x="-9"
     inkscape:window-y="-9"
     inkscape:window-maximized="1"
     fit-margin-top="0"
     fit-margin-left="0"
     fit-margin-right="0"
     fit-margin-bottom="0" />
  <metadata
     id="metadata5">
    <rdf:RDF>
      <cc:Work
         rdf:about="">
        <dc:format>image/svg+xml</dc:format>
        <dc:type
           rdf:resource="http://purl.org/dc/dcmitype/StillImage" />
        <dc:title></dc:title>
      </cc:Work>
    </rdf:RDF>
  </metadata>
  <g
     inkscape:label="Layer 1"
     inkscape:groupmode="layer"
     id="layer1"
     transform="translate(-52.281047,-79.25027)">
    <g
       aria-label=" (╯°△°）╯︵  ┻━┻"
       style="font-style:normal;font-weight:normal;font-size:10.58333302px;line-height:1.25;font-family:sans-serif;letter-spacing:0px;word-spacing:0px;fill:#ffffff;fill-opacity:1;stroke:none;stroke-width:0.26458332"
       id="text12">
      <path
         d="m 55.391968,89.73025 h -1.183391 q -0.914672,-1.049032 -1.421101,-2.289266 -0.506429,-1.240234 -0.506429,-2.795695 0,-1.55546 0.506429,-2.795695 0.506429,-1.240234 1.421101,-2.289266 h 1.183391 v 0.05168 q -0.418579,0.377238 -0.800985,0.873332 -0.377238,0.490926 -0.702799,1.147216 -0.310059,0.63562 -0.50643,1.400432 -0.191202,0.764811 -0.191202,1.612304 0,0.883667 0.186035,1.617472 0.191203,0.733806 0.511597,1.395264 0.310058,0.63562 0.707967,1.147217 0.397908,0.516764 0.795817,0.873332 z"
         style="fill:#ffffff;stroke-width:0.26458332"
         id="path14"
         inkscape:connector-curvature="0" />
      <path
         d="m 61.071207,79.25027 h 0.764811 q 0,2.34611 -1.663981,4.010091 -1.663981,1.663981 -4.010091,1.663981 v -0.764811 q 2.036052,0 3.472656,-1.436605 1.436605,-1.436605 1.436605,-3.472656 z"
         style="fill:#ffffff;stroke-width:0.26458332"
         id="path16"
         inkscape:connector-curvature="0" />
      <path
         d="m 71.685546,81.834091 q 0,0.868164 -0.599447,1.467611 -0.599446,0.599447 -1.472778,0.599447 -0.873331,0 -1.472778,-0.594279 -0.599447,-0.599447 -0.599447,-1.472779 0,-0.868164 0.599447,-1.46761 0.599447,-0.599447 1.472778,-0.599447 0.8785,0 1.472778,0.599447 0.599447,0.599446 0.599447,1.46761 z m -0.852661,0 q 0,-0.527099 -0.346232,-0.883667 -0.346232,-0.361735 -0.873332,-0.361735 -0.527099,0 -0.873331,0.361735 -0.346233,0.356568 -0.346233,0.883667 0,0.537435 0.3514,0.894003 0.356568,0.351399 0.868164,0.351399 0.5271,0 0.873332,-0.361735 0.346232,-0.361735 0.346232,-0.883667 z"
         style="fill:#ffffff;stroke-width:0.26458332"
         id="path18"
         inkscape:connector-curvature="0" />
      <path
         d="m 79.757405,87.601181 h -6.118489 l 3.059245,-6.118489 z m -0.821655,-0.511597 -2.237589,-4.470011 -2.232422,4.470011 z"
         style="fill:#ffffff;stroke-width:0.26458332"
         id="path20"
         inkscape:connector-curvature="0" />
      <path
         d="m 85.844888,81.834091 q 0,0.868164 -0.599447,1.467611 -0.599446,0.599447 -1.472778,0.599447 -0.873332,0 -1.472778,-0.594279 -0.599447,-0.599447 -0.599447,-1.472779 0,-0.868164 0.599447,-1.46761 0.599446,-0.599447 1.472778,-0.599447 0.878499,0 1.472778,0.599447 0.599447,0.599446 0.599447,1.46761 z m -0.852661,0 q 0,-0.527099 -0.346232,-0.883667 -0.346232,-0.361735 -0.873332,-0.361735 -0.5271,0 -0.873332,0.361735 -0.346232,0.356568 -0.346232,0.883667 0,0.537435 0.3514,0.894003 0.356567,0.351399 0.868164,0.351399 0.5271,0 0.873332,-0.361735 0.346232,-0.361735 0.346232,-0.883667 z"
         style="fill:#ffffff;stroke-width:0.26458332"
         id="path22"
         inkscape:connector-curvature="0" />
      <path
         d="m 89.462237,86.278264 q -0.496094,1.033529 -1.529622,2.191081 l -0.454753,-0.454753 q 1.033529,-1.11621 1.44694,-2.025716 0.454753,-0.992187 0.454753,-2.108398 0,-1.322917 -0.454753,-2.273763 -0.413411,-0.868164 -1.44694,-1.81901 l 0.454753,-0.413412 q 1.074869,0.992188 1.529622,1.943034 0.537435,1.116211 0.537435,2.563151 0,1.281575 -0.537435,2.397786 z"
         style="fill:#ffffff;stroke-width:0.26458332"
         id="path24"
         inkscape:connector-curvature="0" />
      <path
         d="m 102.14364,79.25027 h 0.76481 q 0,2.34611 -1.66398,4.010091 -1.663985,1.663981 -4.010095,1.663981 v -0.764811 q 2.036051,0 3.472655,-1.436605 1.43661,-1.436605 1.43661,-3.472656 z"
         style="fill:#ffffff;stroke-width:0.26458332"
         id="path26"
         inkscape:connector-curvature="0" />
      <path
         d="m 118.1995,87.01207 -0.72864,0.506429 q -1.84484,-2.356446 -4.26847,-2.356446 -2.39779,0 -4.47518,2.315105 l -0.70796,-0.558106 q 1.07486,-1.235067 2.42879,-1.90686 1.35392,-0.676961 2.73368,-0.676961 3.02307,0 5.01778,2.676839 z"
         style="fill:#ffffff;stroke-width:0.26458332"
         id="path28"
         inkscape:connector-curvature="0" />
      <path
         d="M 125.0983,85.053533 V 84.03034 h 4.78007 v -4.78007 h 1.0232 v 4.78007 h 4.78007 v 1.023193 z"
         style="fill:#ffffff;stroke-width:0.26458332"
         id="path30"
         inkscape:connector-curvature="0" />
      <path
         d="M 135.68164,85.053533 V 84.03034 h 10.58333 v 1.023193 z"
         style="fill:#ffffff;stroke-width:0.26458332"
         id="path32"
         inkscape:connector-curvature="0" />
      <path
         d="M 146.26497,85.053533 V 84.03034 h 4.78007 v -4.78007 h 1.02319 v 4.78007 h 4.78007 v 1.023193 z"
         style="fill:#ffffff;stroke-width:0.26458332"
         id="path34"
         inkscape:connector-curvature="0" />
    </g>
  </g>
</svg>
